la0_waveform.vcd
#0 $dumpon
$date today $end
$timescale 1 ns $end
$scope module top $end
$var wire 16 0 wsctrl/data_depth $end
$var wire 16 1 wsctrl/num_leds $end
$var wire 1 2 wsctrl/r_write $end
$var wire 1 3 wsctrl/write $end
$var wire 16 4 WS2812_Interface/num_leds $end
$var wire 16 5 WS2812_Interface/r_data_depth $end
$var wire 16 6 WS2812_Interface/data_depth $end
$var wire 16 7 WS2812_Interface/r_num_leds $end
$var wire 1 8 data_ctrl/write $end
$var wire 1 9 data_ctrl/write_config $end
$var wire 24 a data_ctrl/r_rgb_data $end
$var wire 16 b data_ctrl/r_data_depth $end
$var wire 1 c data_ctrl/r_write $end
$var wire 4 d data_ctrl/state $end
$var wire 1 e WS2812_Interface/data $end
$var wire 1 f WS2812_Interface/data_dv $end
$var wire 24 10 WS2812_Interface/rgb_data_in $end
$var wire 16 11 WS2812_Interface/r_data_count $end
$var wire 16 12 WS2812_Interface/data_count $end
$var wire 5 13 WS2812_Interface/rgb_counter $end
$var wire 11 14 WS2812_Interface/high_count $end
$var wire 1 15 WS2812_Interface/r_data $end
$var wire 1 16 WS2812_Interface/r_read_en $end
$var wire 16 17 WS2812_Interface/led_counter $end
$var wire 1 18 WS2812_Interface/read_en $end
$var wire 32 19 WS2812_Interface/reset_count $end
$var wire 4 1a WS2812_Interface/state $end
$var wire 1 1b WS2812_Interface/write_config $end
$var wire 24 1c WS2812_Interface/led_color $end
$var wire 11 1d WS2812_Interface/low_count $end
$var wire 1 1e wsctrl/data_delay_flag $end
$var wire 1 1f wsctrl/r_fifo_read_en $end
$var wire 4 20 wsctrl/post_wait_state $end
$var wire 1 21 wsctrl/data_length_flag $end
$var wire 16 22 wsctrl/data_delay $end
$var wire 1 23 wsctrl/fifo_read_en $end
$var wire 16 24 wsctrl/r_data_shift $end
$var wire 16 25 wsctrl/r_data_length $end
$var wire 16 26 wsctrl/data_length $end
$var wire 8 27 wsctrl/fifo_read_data $end
$var wire 8 28 wsctrl/r_data_config $end
$var wire 4 29 wsctrl/state $end
$var wire 1 2a wsctrl/f_empty $end
$var wire 16 2b wsctrl/r_num_leds $end
$var wire 1 2c wsctrl/reset $end
$var wire 1 2d wsctrl/data_shift_change_flag $end
$var wire 16 2e wsctrl/r_data_delay $end
$var wire 1 2f wsctrl/num_leds_flag $end
$var wire 16 30 wsctrl/r_data_depth $end
$var wire 1 31 wsctrl/data_shift_flag $end
$upscope $end
$enddefinitions $end
#0
$dumpvars
b0000000000000000 0
b0000000000000101 1
02
03
b0000000000000101 4
b0000000000000101 5
b0000000000000000 6
b0000000000000101 7
08
09
b111111111111111111111111 a
b0000000000000101 b
0c
b0001 d
0e
0f
b001000001111111111111111 10
b0000000000000100 11
b0000000000000100 12
b01000 13
b11111111111 14
015
016
b0000000000000100 17
018
b00000000000000000000000000000000 19
b0101 1a
01b
b001000001111111111111111 1c
b00000000111 1d
11e
01f
b0011 20
121
b0000101010011000 22
023
b0000000000000000 24
b0000000000000000 25
b0000000000000000 26
b10011000 27
b00000011 28
b0001 29
12a
b0000000000000101 2b
02c
02d
b0000101010011000 2e
12f
b0000000000000000 30
131
$end
#1
b00000000110 1d
#2
b00000000101 1d
#3
b00000000100 1d
#4
b00000000011 1d
#5
b00000000010 1d
#6
b00000000001 1d
#7
b00000000000 1d
#8
b00111 13
b0011 1a
b11111111111 1d
#9
b00000101000 14
b0100 1a
b00000010100 1d
#10
1e
b00000100111 14
115
#11
b00000100110 14
#12
b00000100101 14
#13
b00000100100 14
#14
b00000100011 14
#15
b00000100010 14
#16
b00000100001 14
#17
b00000100000 14
#18
b00000011111 14
#19
b00000011110 14
#20
b00000011101 14
#21
b00000011100 14
#22
b00000011011 14
#23
b00000011010 14
#24
b00000011001 14
#25
b00000011000 14
#26
b00000010111 14
#27
b00000010110 14
#28
b00000010101 14
#29
b00000010100 14
#30
b00000010011 14
#31
b00000010010 14
#32
b00000010001 14
#33
b00000010000 14
#34
b00000001111 14
#35
b00000001110 14
#36
b00000001101 14
#37
b00000001100 14
#38
b00000001011 14
#39
b00000001010 14
#40
b00000001001 14
#41
b00000001000 14
#42
b00000000111 14
#43
b00000000110 14
#44
b00000000101 14
#45
b00000000100 14
#46
b00000000011 14
#47
b00000000010 14
#48
b00000000001 14
#49
b00000000000 14
#50
b11111111111 14
b0101 1a
#51
0e
015
b00000010011 1d
#52
b00000010010 1d
#53
b00000010001 1d
#54
b00000010000 1d
#55
b00000001111 1d
#56
b00000001110 1d
#57
b00000001101 1d
#58
b00000001100 1d
#59
b00000001011 1d
#60
b00000001010 1d
#61
b00000001001 1d
#62
b00000001000 1d
#63
b00000000111 1d
#64
b00000000110 1d
#65
b00000000101 1d
#66
b00000000100 1d
#67
b00000000011 1d
#68
b00000000010 1d
#69
b00000000001 1d
#70
b00000000000 1d
#71
b00110 13
b0011 1a
b11111111111 1d
#72
b00000101000 14
b0100 1a
b00000010100 1d
#73
1e
b00000100111 14
115
#74
b00000100110 14
#75
b00000100101 14
#76
b00000100100 14
#77
b00000100011 14
#78
b00000100010 14
#79
b00000100001 14
#80
b00000100000 14
#81
b00000011111 14
#82
b00000011110 14
#83
b00000011101 14
#84
b00000011100 14
#85
b00000011011 14
#86
b00000011010 14
#87
b00000011001 14
#88
b00000011000 14
#89
b00000010111 14
#90
b00000010110 14
#91
b00000010101 14
#92
b00000010100 14
#93
b00000010011 14
#94
b00000010010 14
#95
b00000010001 14
#96
b00000010000 14
#97
b00000001111 14
#98
b00000001110 14
#99
b00000001101 14
#100
b00000001100 14
#101
b00000001011 14
#102
b00000001010 14
#103
b00000001001 14
#104
b00000001000 14
#105
b00000000111 14
#106
b00000000110 14
#107
b00000000101 14
#108
b00000000100 14
#109
b00000000011 14
#110
b00000000010 14
#111
b00000000001 14
#112
b00000000000 14
#113
b11111111111 14
b0101 1a
#114
0e
015
b00000010011 1d
#115
b00000010010 1d
#116
b00000010001 1d
#117
b00000010000 1d
#118
b00000001111 1d
#119
b00000001110 1d
#120
b00000001101 1d
#121
b00000001100 1d
#122
b00000001011 1d
#123
b00000001010 1d
#124
b00000001001 1d
#125
b00000001000 1d
#126
b00000000111 1d
#127
b00000000110 1d
#128
b00000000101 1d
#129
b00000000100 1d
#130
b00000000011 1d
#131
b00000000010 1d
#132
b00000000001 1d
#133
b00000000000 1d
#134
b00101 13
b0011 1a
b11111111111 1d
#135
b00000101000 14
b0100 1a
b00000010100 1d
#136
1e
b00000100111 14
115
#137
b00000100110 14
#138
b00000100101 14
#139
b00000100100 14
#140
b00000100011 14
#141
b00000100010 14
#142
b00000100001 14
#143
b00000100000 14
#144
b00000011111 14
#145
b00000011110 14
#146
b00000011101 14
#147
b00000011100 14
#148
b00000011011 14
#149
b00000011010 14
#150
b00000011001 14
#151
b00000011000 14
#152
b00000010111 14
#153
b00000010110 14
#154
b00000010101 14
#155
b00000010100 14
#156
b00000010011 14
#157
b00000010010 14
#158
b00000010001 14
#159
b00000010000 14
#160
b00000001111 14
#161
b00000001110 14
#162
b00000001101 14
#163
b00000001100 14
#164
b00000001011 14
#165
b00000001010 14
#166
b00000001001 14
#167
b00000001000 14
#168
b00000000111 14
#169
b00000000110 14
#170
b00000000101 14
#171
b00000000100 14
#172
b00000000011 14
#173
b00000000010 14
#174
b00000000001 14
#175
b00000000000 14
#176
b11111111111 14
b0101 1a
#177
0e
015
b00000010011 1d
#178
b00000010010 1d
#179
b00000010001 1d
#180
b00000010000 1d
#181
b00000001111 1d
#182
b00000001110 1d
#183
b00000001101 1d
#184
b00000001100 1d
#185
b00000001011 1d
#186
b00000001010 1d
#187
b00000001001 1d
#188
b00000001000 1d
#189
b00000000111 1d
#190
b00000000110 1d
#191
b00000000101 1d
#192
b00000000100 1d
#193
b00000000011 1d
#194
b00000000010 1d
#195
b00000000001 1d
#196
b00000000000 1d
#197
b00100 13
b0011 1a
b11111111111 1d
#198
b00000101000 14
b0100 1a
b00000010100 1d
#199
1e
b00000100111 14
115
#200
b00000100110 14
#201
b00000100101 14
#202
b00000100100 14
#203
b00000100011 14
#204
b00000100010 14
#205
b00000100001 14
#206
b00000100000 14
#207
b00000011111 14
#208
b00000011110 14
#209
b00000011101 14
#210
b00000011100 14
#211
b00000011011 14
#212
b00000011010 14
#213
b00000011001 14
#214
b00000011000 14
#215
b00000010111 14
#216
b00000010110 14
#217
b00000010101 14
#218
b00000010100 14
#219
b00000010011 14
#220
b00000010010 14
#221
b00000010001 14
#222
b00000010000 14
#223
b00000001111 14
#224
b00000001110 14
#225
b00000001101 14
#226
b00000001100 14
#227
b00000001011 14
#228
b00000001010 14
#229
b00000001001 14
#230
b00000001000 14
#231
b00000000111 14
#232
b00000000110 14
#233
b00000000101 14
#234
b00000000100 14
#235
b00000000011 14
#236
b00000000010 14
#237
b00000000001 14
#238
b00000000000 14
#239
b11111111111 14
b0101 1a
#240
0e
015
b00000010011 1d
#241
b00000010010 1d
#242
b00000010001 1d
#243
b00000010000 1d
#244
b00000001111 1d
#245
b00000001110 1d
#246
b00000001101 1d
#247
b00000001100 1d
#248
b00000001011 1d
#249
b00000001010 1d
#250
b00000001001 1d
#251
b00000001000 1d
#252
b00000000111 1d
#253
b00000000110 1d
#254
b00000000101 1d
#255
b00000000100 1d
#256
b00000000011 1d
#257
b00000000010 1d
#258
b00000000001 1d
#259
b00000000000 1d
#260
b00011 13
b0011 1a
b11111111111 1d
#261
b00000101000 14
b0100 1a
b00000010100 1d
#262
1e
b00000100111 14
115
#263
b00000100110 14
#264
b00000100101 14
#265
b00000100100 14
#266
b00000100011 14
#267
b00000100010 14
#268
b00000100001 14
#269
b00000100000 14
#270
b00000011111 14
#271
b00000011110 14
#272
b00000011101 14
#273
b00000011100 14
#274
b00000011011 14
#275
b00000011010 14
#276
b00000011001 14
#277
b00000011000 14
#278
b00000010111 14
#279
b00000010110 14
#280
b00000010101 14
#281
b00000010100 14
#282
b00000010011 14
#283
b00000010010 14
#284
b00000010001 14
#285
b00000010000 14
#286
b00000001111 14
#287
b00000001110 14
#288
b00000001101 14
#289
b00000001100 14
#290
b00000001011 14
#291
b00000001010 14
#292
b00000001001 14
#293
b00000001000 14
#294
b00000000111 14
#295
b00000000110 14
#296
b00000000101 14
#297
b00000000100 14
#298
b00000000011 14
#299
b00000000010 14
#300
b00000000001 14
#301
b00000000000 14
#302
b11111111111 14
b0101 1a
#303
0e
015
b00000010011 1d
#304
b00000010010 1d
#305
b00000010001 1d
#306
b00000010000 1d
#307
b00000001111 1d
#308
b00000001110 1d
#309
b00000001101 1d
#310
b00000001100 1d
#311
b00000001011 1d
#312
b00000001010 1d
#313
b00000001001 1d
#314
b00000001000 1d
#315
b00000000111 1d
#316
b00000000110 1d
#317
b00000000101 1d
#318
b00000000100 1d
#319
b00000000011 1d
#320
b00000000010 1d
#321
b00000000001 1d
#322
b00000000000 1d
#323
b00010 13
b0011 1a
b11111111111 1d
#324
b00000101000 14
b0100 1a
b00000010100 1d
#325
1e
b00000100111 14
115
#326
b00000100110 14
#327
b00000100101 14
#328
b00000100100 14
#329
b00000100011 14
#330
b00000100010 14
#331
b00000100001 14
#332
b00000100000 14
#333
b00000011111 14
#334
b00000011110 14
#335
b00000011101 14
#336
b00000011100 14
#337
b00000011011 14
#338
b00000011010 14
#339
b00000011001 14
#340
b00000011000 14
#341
b00000010111 14
#342
b00000010110 14
#343
b00000010101 14
#344
b00000010100 14
#345
b00000010011 14
#346
b00000010010 14
#347
b00000010001 14
#348
b00000010000 14
#349
b00000001111 14
#350
b00000001110 14
#351
b00000001101 14
#352
b00000001100 14
#353
b00000001011 14
#354
b00000001010 14
#355
b00000001001 14
#356
b00000001000 14
#357
b00000000111 14
#358
b00000000110 14
#359
b00000000101 14
#360
b00000000100 14
#361
b00000000011 14
#362
b00000000010 14
#363
b00000000001 14
#364
b00000000000 14
#365
b11111111111 14
b0101 1a
#366
0e
015
b00000010011 1d
#367
b00000010010 1d
#368
b00000010001 1d
#369
b00000010000 1d
#370
b00000001111 1d
#371
b00000001110 1d
#372
b00000001101 1d
#373
b00000001100 1d
#374
b00000001011 1d
#375
b00000001010 1d
#376
b00000001001 1d
#377
b00000001000 1d
#378
b00000000111 1d
#379
b00000000110 1d
#380
b00000000101 1d
#381
b00000000100 1d
#382
b00000000011 1d
#383
b00000000010 1d
#384
b00000000001 1d
#385
b00000000000 1d
#386
b00001 13
b0011 1a
b11111111111 1d
#387
b00000101000 14
b0100 1a
b00000010100 1d
#388
1e
b00000100111 14
115
#389
b00000100110 14
#390
b00000100101 14
#391
b00000100100 14
#392
b00000100011 14
#393
b00000100010 14
#394
b00000100001 14
#395
b00000100000 14
#396
b00000011111 14
#397
b00000011110 14
#398
b00000011101 14
#399
b00000011100 14
#400
b00000011011 14
#401
b00000011010 14
#402
b00000011001 14
#403
b00000011000 14
#404
b00000010111 14
#405
b00000010110 14
#406
b00000010101 14
#407
b00000010100 14
#408
b00000010011 14
#409
b00000010010 14
#410
b00000010001 14
#411
b00000010000 14
#412
b00000001111 14
#413
b00000001110 14
#414
b00000001101 14
#415
b00000001100 14
#416
b00000001011 14
#417
b00000001010 14
#418
b00000001001 14
#419
b00000001000 14
#420
b00000000111 14
#421
b00000000110 14
#422
b00000000101 14
#423
b00000000100 14
#424
b00000000011 14
#425
b00000000010 14
#426
b00000000001 14
#427
b00000000000 14
#428
b11111111111 14
b0101 1a
#429
0e
015
b00000010011 1d
#430
b00000010010 1d
#431
b00000010001 1d
#432
b00000010000 1d
#433
b00000001111 1d
#434
b00000001110 1d
#435
b00000001101 1d
#436
b00000001100 1d
#437
b00000001011 1d
#438
b00000001010 1d
#439
b00000001001 1d
#440
b00000001000 1d
#441
b00000000111 1d
#442
b00000000110 1d
#443
b00000000101 1d
#444
b00000000100 1d
#445
b00000000011 1d
#446
b00000000010 1d
#447
b00000000001 1d
#448
b00000000000 1d
#449
b00000 13
b0011 1a
b11111111111 1d
#450
b00000101000 14
b0100 1a
b00000010100 1d
#451
1e
b00000100111 14
115
#452
b00000100110 14
#453
b00000100101 14
#454
b00000100100 14
#455
b00000100011 14
#456
b00000100010 14
#457
b00000100001 14
#458
b00000100000 14
#459
b00000011111 14
#460
b00000011110 14
#461
b00000011101 14
#462
b00000011100 14
#463
b00000011011 14
#464
b00000011010 14
#465
b00000011001 14
#466
b00000011000 14
#467
b00000010111 14
#468
b00000010110 14
#469
b00000010101 14
#470
b00000010100 14
#471
b00000010011 14
#472
b00000010010 14
#473
b00000010001 14
#474
b00000010000 14
#475
b00000001111 14
#476
b00000001110 14
#477
b00000001101 14
#478
b00000001100 14
#479
b00000001011 14
#480
b00000001010 14
#481
b00000001001 14
#482
b00000001000 14
#483
b00000000111 14
#484
b00000000110 14
#485
b00000000101 14
#486
b00000000100 14
#487
b00000000011 14
#488
b00000000010 14
#489
b00000000001 14
#490
b00000000000 14
#491
b11111111111 14
b0101 1a
#492
0e
015
b00000010011 1d
#493
b00000010010 1d
#494
b00000010001 1d
#495
b00000010000 1d
#496
b00000001111 1d
#497
b00000001110 1d
#498
b00000001101 1d
#499
b00000001100 1d
#500
b00000001011 1d
#501
b00000001010 1d
#502
b00000001001 1d
#503
b00000001000 1d
#504
b00000000111 1d
#505
b00000000110 1d
#506
b00000000101 1d
#507
b00000000100 1d
#508
b00000000011 1d
#509
b00000000010 1d
#510
b00000000001 1d
#511
b00000000000 1d
#512
b0000000000000000 11
b0000000000000000 12
b0110 1a
b11111111111 1d
#513
b11111111111111111111111111111111 19
b0000 1a
#514
b0000000000000000 17
b00000000000000000000000000000000 19
b0001 1a
#515
116
118
b0010 1a
#517
1f
b111111111111111111111111 10
#518
0f
b10111 13
016
018
b0011 1a
b111111111111111111111111 1c
#519
b00000101000 14
b0100 1a
b00000010100 1d
#520
1e
b00000100111 14
115
#521
b00000100110 14
#522
b00000100101 14
#523
b00000100100 14
#524
b00000100011 14
#525
b00000100010 14
#526
b00000100001 14
#527
b00000100000 14
#528
b00000011111 14
#529
b00000011110 14
#530
b00000011101 14
#531
b00000011100 14
#532
b00000011011 14
#533
b00000011010 14
#534
b00000011001 14
#535
b00000011000 14
#536
b00000010111 14
#537
b00000010110 14
#538
b00000010101 14
#539
b00000010100 14
#540
b00000010011 14
#541
b00000010010 14
#542
b00000010001 14
#543
b00000010000 14
#544
b00000001111 14
#545
b00000001110 14
#546
b00000001101 14
#547
b00000001100 14
#548
b00000001011 14
#549
b00000001010 14
#550
b00000001001 14
#551
b00000001000 14
#552
b00000000111 14
#553
b00000000110 14
#554
b00000000101 14
#555
b00000000100 14
#556
b00000000011 14
#557
b00000000010 14
#558
b00000000001 14
#559
b00000000000 14
#560
b11111111111 14
b0101 1a
#561
0e
015
b00000010011 1d
#562
b00000010010 1d
#563
b00000010001 1d
#564
b00000010000 1d
#565
b00000001111 1d
#566
b00000001110 1d
#567
b00000001101 1d
#568
b00000001100 1d
#569
b00000001011 1d
#570
b00000001010 1d
#571
b00000001001 1d
#572
b00000001000 1d
#573
b00000000111 1d
#574
b00000000110 1d
#575
b00000000101 1d
#576
b00000000100 1d
#577
b00000000011 1d
#578
b00000000010 1d
#579
b00000000001 1d
#580
b00000000000 1d
#581
b10110 13
b0011 1a
b11111111111 1d
#582
b00000101000 14
b0100 1a
b00000010100 1d
#583
1e
b00000100111 14
115
#584
b00000100110 14
#585
b00000100101 14
#586
b00000100100 14
#587
b00000100011 14
#588
b00000100010 14
#589
b00000100001 14
#590
b00000100000 14
#591
b00000011111 14
#592
b00000011110 14
#593
b00000011101 14
#594
b00000011100 14
#595
b00000011011 14
#596
b00000011010 14
#597
b00000011001 14
#598
b00000011000 14
#599
b00000010111 14
#600
b00000010110 14
#601
b00000010101 14
#602
b00000010100 14
#603
b00000010011 14
#604
b00000010010 14
#605
b00000010001 14
#606
b00000010000 14
#607
b00000001111 14
#608
b00000001110 14
#609
b00000001101 14
#610
b00000001100 14
#611
b00000001011 14
#612
b00000001010 14
#613
b00000001001 14
#614
b00000001000 14
#615
b00000000111 14
#616
b00000000110 14
#617
b00000000101 14
#618
b00000000100 14
#619
b00000000011 14
#620
b00000000010 14
#621
b00000000001 14
#622
b00000000000 14
#623
b11111111111 14
b0101 1a
#624
0e
015
b00000010011 1d
#625
b00000010010 1d
#626
b00000010001 1d
#627
b00000010000 1d
#628
b00000001111 1d
#629
b00000001110 1d
#630
b00000001101 1d
#631
b00000001100 1d
#632
b00000001011 1d
#633
b00000001010 1d
#634
b00000001001 1d
#635
b00000001000 1d
#636
b00000000111 1d
#637
b00000000110 1d
#638
b00000000101 1d
#639
b00000000100 1d
#640
b00000000011 1d
#641
b00000000010 1d
#642
b00000000001 1d
#643
b00000000000 1d
#644
b10101 13
b0011 1a
b11111111111 1d
#645
b00000101000 14
b0100 1a
b00000010100 1d
#646
1e
b00000100111 14
115
#647
b00000100110 14
#648
b00000100101 14
#649
b00000100100 14
#650
b00000100011 14
#651
b00000100010 14
#652
b00000100001 14
#653
b00000100000 14
#654
b00000011111 14
#655
b00000011110 14
#656
b00000011101 14
#657
b00000011100 14
#658
b00000011011 14
#659
b00000011010 14
#660
b00000011001 14
#661
b00000011000 14
#662
b00000010111 14
#663
b00000010110 14
#664
b00000010101 14
#665
b00000010100 14
#666
b00000010011 14
#667
b00000010010 14
#668
b00000010001 14
#669
b00000010000 14
#670
b00000001111 14
#671
b00000001110 14
#672
b00000001101 14
#673
b00000001100 14
#674
b00000001011 14
#675
b00000001010 14
#676
b00000001001 14
#677
b00000001000 14
#678
b00000000111 14
#679
b00000000110 14
#680
b00000000101 14
#681
b00000000100 14
#682
b00000000011 14
#683
b00000000010 14
#684
b00000000001 14
#685
b00000000000 14
#686
b11111111111 14
b0101 1a
#687
0e
015
b00000010011 1d
#688
b00000010010 1d
#689
b00000010001 1d
#690
b00000010000 1d
#691
b00000001111 1d
#692
b00000001110 1d
#693
b00000001101 1d
#694
b00000001100 1d
#695
b00000001011 1d
#696
b00000001010 1d
#697
b00000001001 1d
#698
b00000001000 1d
#699
b00000000111 1d
#700
b00000000110 1d
#701
b00000000101 1d
#702
b00000000100 1d
#703
b00000000011 1d
#704
b00000000010 1d
#705
b00000000001 1d
#706
b00000000000 1d
#707
b10100 13
b0011 1a
b11111111111 1d
#708
b00000101000 14
b0100 1a
b00000010100 1d
#709
1e
b00000100111 14
115
#710
b00000100110 14
#711
b00000100101 14
#712
b00000100100 14
#713
b00000100011 14
#714
b00000100010 14
#715
b00000100001 14
#716
b00000100000 14
#717
b00000011111 14
#718
b00000011110 14
#719
b00000011101 14
#720
b00000011100 14
#721
b00000011011 14
#722
b00000011010 14
#723
b00000011001 14
#724
b00000011000 14
#725
b00000010111 14
#726
b00000010110 14
#727
b00000010101 14
#728
b00000010100 14
#729
b00000010011 14
#730
b00000010010 14
#731
b00000010001 14
#732
b00000010000 14
#733
b00000001111 14
#734
b00000001110 14
#735
b00000001101 14
#736
b00000001100 14
#737
b00000001011 14
#738
b00000001010 14
#739
b00000001001 14
#740
b00000001000 14
#741
b00000000111 14
#742
b00000000110 14
#743
b00000000101 14
#744
b00000000100 14
#745
b00000000011 14
#746
b00000000010 14
#747
b00000000001 14
#748
b00000000000 14
#749
b11111111111 14
b0101 1a
#750
0e
015
b00000010011 1d
#751
b00000010010 1d
#752
b00000010001 1d
#753
b00000010000 1d
#754
b00000001111 1d
#755
b00000001110 1d
#756
b00000001101 1d
#757
b00000001100 1d
#758
b00000001011 1d
#759
b00000001010 1d
#760
b00000001001 1d
#761
b00000001000 1d
#762
b00000000111 1d
#763
b00000000110 1d
#764
b00000000101 1d
#765
b00000000100 1d
#766
b00000000011 1d
#767
b00000000010 1d
#768
b00000000001 1d
#769
b00000000000 1d
#770
b10011 13
b0011 1a
b11111111111 1d
#771
b00000101000 14
b0100 1a
b00000010100 1d
#772
1e
b00000100111 14
115
#773
b00000100110 14
#774
b00000100101 14
#775
b00000100100 14
#776
b00000100011 14
#777
b00000100010 14
#778
b00000100001 14
#779
b00000100000 14
#780
b00000011111 14
#781
b00000011110 14
#782
b00000011101 14
#783
b00000011100 14
#784
b00000011011 14
#785
b00000011010 14
#786
b00000011001 14
#787
b00000011000 14
#788
b00000010111 14
#789
b00000010110 14
#790
b00000010101 14
#791
b00000010100 14
#792
b00000010011 14
#793
b00000010010 14
#794
b00000010001 14
#795
b00000010000 14
#796
b00000001111 14
#797
b00000001110 14
#798
b00000001101 14
#799
b00000001100 14
#800
b00000001011 14
#801
b00000001010 14
#802
b00000001001 14
#803
b00000001000 14
#804
b00000000111 14
#805
b00000000110 14
#806
b00000000101 14
#807
b00000000100 14
#808
b00000000011 14
#809
b00000000010 14
#810
b00000000001 14
#811
b00000000000 14
#812
b11111111111 14
b0101 1a
#813
0e
015
b00000010011 1d
#814
b00000010010 1d
#815
b00000010001 1d
#816
b00000010000 1d
#817
b00000001111 1d
#818
b00000001110 1d
#819
b00000001101 1d
#820
b00000001100 1d
#821
b00000001011 1d
#822
b00000001010 1d
#823
b00000001001 1d
#824
b00000001000 1d
#825
b00000000111 1d
#826
b00000000110 1d
#827
b00000000101 1d
#828
b00000000100 1d
#829
b00000000011 1d
#830
b00000000010 1d
#831
b00000000001 1d
#832
b00000000000 1d
#833
b10010 13
b0011 1a
b11111111111 1d
#834
b00000101000 14
b0100 1a
b00000010100 1d
#835
1e
b00000100111 14
115
#836
b00000100110 14
#837
b00000100101 14
#838
b00000100100 14
#839
b00000100011 14
#840
b00000100010 14
#841
b00000100001 14
#842
b00000100000 14
#843
b00000011111 14
#844
b00000011110 14
#845
b00000011101 14
#846
b00000011100 14
#847
b00000011011 14
#848
b00000011010 14
#849
b00000011001 14
#850
b00000011000 14
#851
b00000010111 14
#852
b00000010110 14
#853
b00000010101 14
#854
b00000010100 14
#855
b00000010011 14
#856
b00000010010 14
#857
b00000010001 14
#858
b00000010000 14
#859
b00000001111 14
#860
b00000001110 14
#861
b00000001101 14
#862
b00000001100 14
#863
b00000001011 14
#864
b00000001010 14
#865
b00000001001 14
#866
b00000001000 14
#867
b00000000111 14
#868
b00000000110 14
#869
b00000000101 14
#870
b00000000100 14
#871
b00000000011 14
#872
b00000000010 14
#873
b00000000001 14
#874
b00000000000 14
#875
b11111111111 14
b0101 1a
#876
0e
015
b00000010011 1d
#877
b00000010010 1d
#878
b00000010001 1d
#879
b00000010000 1d
#880
b00000001111 1d
#881
b00000001110 1d
#882
b00000001101 1d
#883
b00000001100 1d
#884
b00000001011 1d
#885
b00000001010 1d
#886
b00000001001 1d
#887
b00000001000 1d
#888
b00000000111 1d
#889
b00000000110 1d
#890
b00000000101 1d
#891
b00000000100 1d
#892
b00000000011 1d
#893
b00000000010 1d
#894
b00000000001 1d
#895
b00000000000 1d
#896
b10001 13
b0011 1a
b11111111111 1d
#897
b00000101000 14
b0100 1a
b00000010100 1d
#898
1e
b00000100111 14
115
#899
b00000100110 14
#900
b00000100101 14
#901
b00000100100 14
#902
b00000100011 14
#903
b00000100010 14
#904
b00000100001 14
#905
b00000100000 14
#906
b00000011111 14
#907
b00000011110 14
#908
b00000011101 14
#909
b00000011100 14
#910
b00000011011 14
#911
b00000011010 14
#912
b00000011001 14
#913
b00000011000 14
#914
b00000010111 14
#915
b00000010110 14
#916
b00000010101 14
#917
b00000010100 14
#918
b00000010011 14
#919
b00000010010 14
#920
b00000010001 14
#921
b00000010000 14
#922
b00000001111 14
#923
b00000001110 14
#924
b00000001101 14
#925
b00000001100 14
#926
b00000001011 14
#927
b00000001010 14
#928
b00000001001 14
#929
b00000001000 14
#930
b00000000111 14
#931
b00000000110 14
#932
b00000000101 14
#933
b00000000100 14
#934
b00000000011 14
#935
b00000000010 14
#936
b00000000001 14
#937
b00000000000 14
#938
b11111111111 14
b0101 1a
#939
0e
015
b00000010011 1d
#940
b00000010010 1d
#941
b00000010001 1d
#942
b00000010000 1d
#943
b00000001111 1d
#944
b00000001110 1d
#945
b00000001101 1d
#946
b00000001100 1d
#947
b00000001011 1d
#948
b00000001010 1d
#949
b00000001001 1d
#950
b00000001000 1d
#951
b00000000111 1d
#952
b00000000110 1d
#953
b00000000101 1d
#954
b00000000100 1d
#955
b00000000011 1d
#956
b00000000010 1d
#957
b00000000001 1d
#958
b00000000000 1d
#959
b10000 13
b0011 1a
b11111111111 1d
#960
b00000101000 14
b0100 1a
b00000010100 1d
#961
1e
b00000100111 14
115
#962
b00000100110 14
#963
b00000100101 14
#964
b00000100100 14
#965
b00000100011 14
#966
b00000100010 14
#967
b00000100001 14
#968
b00000100000 14
#969
b00000011111 14
#970
b00000011110 14
#971
b00000011101 14
#972
b00000011100 14
#973
b00000011011 14
#974
b00000011010 14
#975
b00000011001 14
#976
b00000011000 14
#977
b00000010111 14
#978
b00000010110 14
#979
b00000010101 14
#980
b00000010100 14
#981
b00000010011 14
#982
b00000010010 14
#983
b00000010001 14
#984
b00000010000 14
#985
b00000001111 14
#986
b00000001110 14
#987
b00000001101 14
#988
b00000001100 14
#989
b00000001011 14
#990
b00000001010 14
#991
b00000001001 14
#992
b00000001000 14
#993
b00000000111 14
#994
b00000000110 14
#995
b00000000101 14
#996
b00000000100 14
#997
b00000000011 14
#998
b00000000010 14
#999
b00000000001 14
#1000
b00000000000 14
#1001
b11111111111 14
b0101 1a
#1002
0e
015
b00000010011 1d
#1003
b00000010010 1d
#1004
b00000010001 1d
#1005
b00000010000 1d
#1006
b00000001111 1d
#1007
b00000001110 1d
#1008
b00000001101 1d
#1009
b00000001100 1d
#1010
b00000001011 1d
#1011
b00000001010 1d
#1012
b00000001001 1d
#1013
b00000001000 1d
#1014
b00000000111 1d
#1015
b00000000110 1d
#1016
b00000000101 1d
#1017
b00000000100 1d
#1018
b00000000011 1d
#1019
b00000000010 1d
#1020
b00000000001 1d
#1021
b00000000000 1d
#1022
b01111 13
b0011 1a
b11111111111 1d
#1023
b0000000000000000 0
b0000000000000101 1
02
03
b0000000000000101 4
b0000000000000101 5
b0000000000000000 6
b0000000000000101 7
08
09
b111111111111111111111111 a
b0000000000000101 b
0c
b0001 d
0e
0f
b111111111111111111111111 10
b0000000000000000 11
b0000000000000000 12
b01111 13
b00000101000 14
015
016
b0000000000000000 17
018
b00000000000000000000000000000000 19
b0100 1a
01b
b111111111111111111111111 1c
b00000010100 1d
11e
01f
b0011 20
121
b0000101010011000 22
023
b0000000000000000 24
b0000000000000000 25
b0000000000000000 26
b10011000 27
b00000011 28
b0001 29
12a
b0000000000000101 2b
02c
02d
b0000101010011000 2e
12f
b0000000000000000 30
131
